<?xml version='1.0' encoding='UTF-8'?>
<!-- Created with Inkscape (http://www.inkscape.org/) and export_objects.py -->
<svg xmlns:cc="http://creativecommons.org/ns#" xmlns:dc="http://purl.org/dc/elements/1.1/" xmlns:inkscape="http://www.inkscape.org/namespaces/inkscape" xmlns:rdf="http://www.w3.org/1999/02/22-rdf-syntax-ns#" xmlns:sodipodi="http://sodipodi.sourceforge.net/DTD/sodipodi-0.dtd" xmlns:xlink="http://www.w3.org/1999/xlink" xmlns="http://www.w3.org/2000/svg" version="1.1" id="svg1" width="16" height="16" viewBox="0 0 16 16">
<sodipodi:namedview 
    objecttolerance="10" 
    gridtolerance="10" 
    guidetolerance="10" 
    id="namedview" 
    showgrid="true" 
    inkscape:zoom="27.166187"
    inkscape:cx="7.4837792"
    inkscape:cy="8.9906751"
    inkscape:window-x="0" 
    inkscape:window-y="27"> 
    <inkscape:grid type="xygrid" id="grid"/>
  </sodipodi:namedview>
  <g inkscape:groupmode="layer"
     id="layer"
     inkscape:label="expand">
    <path 
       id="rect22048" 
       d="M 0,0 H 16 V 16 H 0 Z" 
       style="opacity:0;fill:none" />
    <path
       style="opacity:1;fill:#000000"
       d="m 2.8110378,1.0813837 c -0.9582284,0 -1.7296541,0.7714257 -1.7296541,1.7296541 V 13.188962 c 0,0.958228 0.7714257,1.729655 1.7296541,1.729655 H 13.188962 c 0.958228,0 1.729655,-0.771427 1.729655,-1.729655 V 2.8110378 c 0,-0.9582284 -0.771427,-1.7296541 -1.729655,-1.7296541 z m 3.8478046,2.4103675 h 2.6671131 v 3.178915 H 12.50487 V 9.3462248 H 9.3259555 V 12.508249 H 6.6588424 V 9.3462248 H 3.4951294 V 6.6706662 h 3.163713 z"
       id="path8690" />
   </g>
</svg>
