<?xml version='1.0' encoding='UTF-8'?>
<!-- Created with Inkscape (http://www.inkscape.org/) and export_objects.py -->
<svg xmlns:cc="http://creativecommons.org/ns#" xmlns:dc="http://purl.org/dc/elements/1.1/" xmlns:inkscape="http://www.inkscape.org/namespaces/inkscape" xmlns:rdf="http://www.w3.org/1999/02/22-rdf-syntax-ns#" xmlns:sodipodi="http://sodipodi.sourceforge.net/DTD/sodipodi-0.dtd" xmlns:xlink="http://www.w3.org/1999/xlink" xmlns="http://www.w3.org/2000/svg" version="1.1" id="svg1" width="16" height="16" viewBox="0 0 16 16">
<sodipodi:namedview 
    objecttolerance="10" 
    gridtolerance="10" 
    guidetolerance="10" 
    id="namedview" 
    showgrid="true" 
    inkscape:zoom="27.166187"
    inkscape:cx="7.4837792"
    inkscape:cy="8.9906751"
    inkscape:window-x="0" 
    inkscape:window-y="27"> 
    <inkscape:grid type="xygrid" id="grid"/>
  </sodipodi:namedview>
  <metadata
     id="metadata1906">
    <rdf:RDF>
      <cc:Work
         rdf:about="">
        <dc:format>image/svg+xml</dc:format>
        <dc:type
           rdf:resource="http://purl.org/dc/dcmitype/StillImage" />
        <cc:license
           rdf:resource="http://creativecommons.org/publicdomain/zero/1.0/" />
        <dc:title>LiveEffect Icons proposal</dc:title>
        <dc:date>13 Jan 2019</dc:date>
        <dc:creator>
          <cc:Agent>
            <dc:title>Ramón Miranda</dc:title>
          </cc:Agent>
        </dc:creator>
        <dc:rights>
          <cc:Agent>
            <dc:title>see the license tab</dc:title>
          </cc:Agent>
        </dc:rights>
        <dc:subject>
          <rdf:Bag>
            <rdf:li>icon ui</rdf:li>
          </rdf:Bag>
        </dc:subject>
        <dc:description>This is a contribution with Inkscape Project from
Ramon Miranda www.ramonmiranda.com (design and SVG file)
Jabiertxo (SVG stuff to integrate them in UI)</dc:description>
        <dc:publisher>
          <cc:Agent>
            <dc:title></dc:title>
          </cc:Agent>
        </dc:publisher>
        <dc:identifier></dc:identifier>
        <dc:source />
        <dc:relation />
        <dc:language>-</dc:language>
        <dc:coverage />
        <dc:contributor>
          <cc:Agent>
            <dc:title>Ramon Miranda
Jabier Arraiza</dc:title>
          </cc:Agent>
        </dc:contributor>
      </cc:Work>
      <cc:License
         rdf:about="http://creativecommons.org/publicdomain/zero/1.0/">
        <cc:permits
           rdf:resource="http://creativecommons.org/ns#Reproduction" />
        <cc:permits
           rdf:resource="http://creativecommons.org/ns#Distribution" />
        <cc:permits
           rdf:resource="http://creativecommons.org/ns#DerivativeWorks" />
      </cc:License>
    </rdf:RDF>
  </metadata>
  <g inkscape:groupmode="layer"
     id="layercompo"
     inkscape:label="interpolate">
        <path 
            id="rect22048" 
            d="M 0,0 H 16 V 16 H 0 Z" 
            style="opacity:0;fill:none" />
        <path
           id="path9609"
           d="M 10.09766,2.748047 10.86133,2.917969 11.0293,2.154297 10.26562,1.986328 Z M 1.929688,2.851562 H 2.708984 V 2.070312 H 1.929688 Z m 7.917968,1.478516 0.775394,0.08594 0.0879,-0.775391 -0.775393,-0.08789 z M 1.929688,4.412109 H 2.708984 V 3.632812 H 1.929688 Z m 7.888671,0.746094 0.0098,0.556641 v 0.0293 l 0.0039,0.0293 0.03711,0.220703 0.771479,-0.128907 -0.0332,-0.191406 -0.01,-0.529297 z M 1.929688,5.974609 H 2.708984 V 5.193359 H 1.929688 Z m 8.105472,0.845703 0.21093,0.613282 0.01,0.0293 0.0137,0.02734 0.0625,0.117188 0.68945,-0.365234 -0.0488,-0.09375 -0.19922,-0.580079 z M 1.929688,7.535156 H 2.708984 V 6.755859 H 1.929688 Z m 8.816402,0.792969 0.27344,0.382813 0.01,0.01367 0.0117,0.01367 0.20312,0.236328 0.5918,-0.509765 -0.19922,-0.232422 -0.004,-0.0039 -0.25,-0.353516 z M 1.929688,9.097656 H 2.708984 V 8.316406 H 1.929688 Z m 9.845702,0.46875 0.53125,0.572264 0.57227,-0.531248 -0.53125,-0.572266 z M 1.929688,10.6582 H 2.708984 V 9.878906 H 1.929688 Z m 10.804692,0.0371 0.22851,0.375 0.0996,0.25391 0.72656,-0.28711 -0.11328,-0.28711 -0.0117,-0.0332 -0.0195,-0.0273 -0.24414,-0.40234 z M 1.929688,12.2207 H 2.708984 V 11.43945 H 1.929688 Z m 11.312502,-0.21875 0.0371,0.20508 -0.006,0.49805 0.78125,0.008 0.006,-0.53516 v -0.0371 l -0.006,-0.0371 -0.0449,-0.24024 z m -11.312502,1.7793 h 0.779296 v -0.7793 H 1.929688 Z m 11.179692,0.0898 0.76953,0.13477 0.0801,-0.45703 -0.76953,-0.13477 z"
           style="opacity:0.5;" />
        <path
           id="path9619"
           d="M 8.394531,1.984375 C 7.55969,5.604973 8.393871,7.470603 9.273438,8.935547 10.153,10.40049 11.00901,11.40876 10.52539,13.86523 l 0.76758,0.15039 C 11.82096,11.33381 10.79235,9.947221 9.943359,8.533203 9.094369,7.119186 8.356293,5.620996 9.154297,2.160156 Z M 6.308594,2.003906 C 5.75175,5.093185 6.299452,6.98937 6.880859,8.623047 7.462267,10.25672 8.053164,11.60161 7.728516,13.88477 l 0.773437,0.10937 C 8.851888,11.53316 8.188129,9.965596 7.617188,8.361328 7.046246,6.75706 6.544365,5.091006 7.076172,2.140625 Z M 4.222656,2.029297 C 3.945358,4.575961 4.215,6.506671 4.503906,8.310547 4.792812,10.11442 5.098003,11.78812 4.933594,13.91016 l 0.777344,0.0605 C 5.88356,11.74265 5.560609,9.980547 5.273438,8.1875 4.986266,6.394453 4.73115,4.566372 4.998047,2.115234 Z"
           style="opacity:1;" />
    </g>
</svg>
